{
  "from": 1,
  "to": 20,
  "count": 10000,
  "_links": {
    "next": {
      "href": "https://api.edamam.com/api/recipes/v2?q=Egg&app_key=fd382a172ba8d6668c0430dc9c14a181&_cont=CHcVQBtNNQphDmgVQntAEX4BYlZtAwsFQW1CB2IRY1Z7AQQEUXlSCmBCY1J6UgoAS2USUWAXZVJ2UgNVRzREUWVBMFZ1AQoVLnlSVSBMPkd5BgMbUSYRVTdgMgksRlpSAAcRXTVGcV84SU4%3D&type=public&app_id=ea1d37d5",
      "title": "Next page"
    }
  },
  "hits": [
    {
      "recipe": {
        "uri": "http://www.edamam.com/ontologies/edamam.owl#recipe_db742742099859a8053b992dd3c1f452",
        "label": "The Crispy Egg",
        "image": "https://www.edamam.com/web-img/16c/16c9f7a2bcf8a7643ada8729cd693c9d.jpg",
        "source": "Smitten Kitchen",
        "url": "http://smittenkitchen.com/blog/2014/10/the-crispy-egg/",
        "shareAs": "http://www.edamam.com/recipe/the-crispy-egg-db742742099859a8053b992dd3c1f452/egg"

      },
      "_links": {
        "self": {
          "href": "https://api.edamam.com/api/recipes/v2/db742742099859a8053b992dd3c1f452?type=public&app_id=ea1d37d5&app_key=fd382a172ba8d6668c0430dc9c14a181",
          "title": "Self"
        }
      }
    },
    {
      "recipe": {
        "uri": "http://www.edamam.com/ontologies/edamam.owl#recipe_b958fb2af215767c51d7545e2f86a722",
        "label": "Egg Noodle",
        "image": "https://www.edamam.com/web-img/a7b/a7bb703b87a4c3c4fd7beb8d5000f2e2.jpg",
        "source": "Epicurious",
        "url": "https://www.epicurious.com/recipes/food/views/egg-noodle-351712",
        "shareAs": "http://www.edamam.com/recipe/egg-noodle-b958fb2af215767c51d7545e2f86a722/egg"
      },
      "_links": {
        "self": {
          "href": "https://api.edamam.com/api/recipes/v2/b958fb2af215767c51d7545e2f86a722?type=public&app_id=ea1d37d5&app_key=fd382a172ba8d6668c0430dc9c14a181",
          "title": "Self"
        }
      }
    },
    {
      "recipe": {
        "uri": "http://www.edamam.com/ontologies/edamam.owl#recipe_933bb646e98e78fd55259e9c743a93cc",
        "label": "Egg Sandwich",
        "image": "https://www.edamam.com/web-img/4f3/4f37381ccbd1baec9281403d03555e53.jpg",
        "source": "Martha Stewart",
        "url": "https://www.marthastewart.com/1090477/egg-sandwich",
        "shareAs": "http://www.edamam.com/recipe/egg-sandwich-933bb646e98e78fd55259e9c743a93cc/egg"

      },
      "_links": {
        "self": {
          "href": "https://api.edamam.com/api/recipes/v2/933bb646e98e78fd55259e9c743a93cc?type=public&app_id=ea1d37d5&app_key=fd382a172ba8d6668c0430dc9c14a181",
          "title": "Self"
        }
      }
    },
    {
      "recipe": {
        "uri": "http://www.edamam.com/ontologies/edamam.owl#recipe_4f1d223cf3c5f30b53c6d972d2ea98ec",
        "label": "Egg Nests recipes",
        "image": "https://www.edamam.com/web-img/4ea/4ea44da2c9c5b7f712b4a93840a2607d",
        "source": "Simply Recipes",
        "url": "http://www.simplyrecipes.com/recipes/egg_nests/",
        "shareAs": "http://www.edamam.com/recipe/egg-nests-recipes-4f1d223cf3c5f30b53c6d972d2ea98ec/egg"

      },
      "_links": {
        "self": {
          "href": "https://api.edamam.com/api/recipes/v2/4f1d223cf3c5f30b53c6d972d2ea98ec?type=public&app_id=ea1d37d5&app_key=fd382a172ba8d6668c0430dc9c14a181",
          "title": "Self"
        }
      }
    },
    {
      "recipe": {
        "uri": "http://www.edamam.com/ontologies/edamam.owl#recipe_ea8b5e0d9c1d62bc53116eb4f3979f9a",
        "label": "Mexican egg roll",
        "image": "https://www.edamam.com/web-img/693/6934debd72a9668d372e2d0fc778d507.jpg",
        "source": "BBC Good Food",
        "url": "https://www.bbcgoodfood.com/recipes/mexican-egg-roll",
        "shareAs": "http://www.edamam.com/recipe/mexican-egg-roll-ea8b5e0d9c1d62bc53116eb4f3979f9a/egg"

      },
      "_links": {
        "self": {
          "href": "https://api.edamam.com/api/recipes/v2/ea8b5e0d9c1d62bc53116eb4f3979f9a?type=public&app_id=ea1d37d5&app_key=fd382a172ba8d6668c0430dc9c14a181",
          "title": "Self"
        }
      }
    },
    {
      "recipe": {
        "uri": "http://www.edamam.com/ontologies/edamam.owl#recipe_46e974ca291e3305aceb3ac97d3e0fd6",
        "label": "Rolled Egg recipes",
        "image": "https://www.edamam.com/web-img/82c/82c413a96206893705fa57e626d122b4",
        "source": "Chowhound",
        "url": "http://www.chowhound.com/recipes/rolled-egg-28844",
        "shareAs": "http://www.edamam.com/recipe/rolled-egg-recipes-46e974ca291e3305aceb3ac97d3e0fd6/egg"

      },
      "_links": {
        "self": {
          "href": "https://api.edamam.com/api/recipes/v2/46e974ca291e3305aceb3ac97d3e0fd6?type=public&app_id=ea1d37d5&app_key=fd382a172ba8d6668c0430dc9c14a181",
          "title": "Self"
        }
      }
    },
    {
      "recipe": {
        "uri": "http://www.edamam.com/ontologies/edamam.owl#recipe_555ecd7b216b8fa941384415a8053d61",
        "label": "Egg Pancakes",
        "image": "https://www.edamam.com/web-img/e54/e5458b2969f07a9315a474fc842f035c.jpg",
        "source": "Food52",
        "url": "https://food52.com/recipes/14283-egg-pancakes",
        "shareAs": "http://www.edamam.com/recipe/egg-pancakes-555ecd7b216b8fa941384415a8053d61/egg"

      },
      "_links": {
        "self": {
          "href": "https://api.edamam.com/api/recipes/v2/555ecd7b216b8fa941384415a8053d61?type=public&app_id=ea1d37d5&app_key=fd382a172ba8d6668c0430dc9c14a181",
          "title": "Self"
        }
      }
    },
    {
      "recipe": {
        "uri": "http://www.edamam.com/ontologies/edamam.owl#recipe_0c8da64b3a0005796969d1120b957dab",
        "label": "Egg-In-A-Hole",
        "image": "https://www.edamam.com/web-img/248/248e340f6e7f3294d6740a859f829333.jpg",
        "source": "Pioneer Woman",
        "url": "http://thepioneerwoman.com/cooking/2008/07/egg-in-a-hole-see-alternate-names-below/",
        "shareAs": "http://www.edamam.com/recipe/egg-in-a-hole-0c8da64b3a0005796969d1120b957dab/egg"

      },
      "_links": {
        "self": {
          "href": "https://api.edamam.com/api/recipes/v2/0c8da64b3a0005796969d1120b957dab?type=public&app_id=ea1d37d5&app_key=fd382a172ba8d6668c0430dc9c14a181",
          "title": "Self"
        }
      }
    },
    {
      "recipe": {
        "uri": "http://www.edamam.com/ontologies/edamam.owl#recipe_b6965e7f8e815e4e69d75ef773cda095",
        "label": "Ham And Egg Sandwich",
        "image": "https://www.edamam.com/web-img/f44/f442fc82496936b32678180c0d856f7b.jpg",
        "source": "Saveur",
        "url": "http://www.saveur.com/article/Recipes/Ham-and-Egg-Sandwich",
        "shareAs": "http://www.edamam.com/recipe/ham-and-egg-sandwich-b6965e7f8e815e4e69d75ef773cda095/egg"

      },
      "_links": {
        "self": {
          "href": "https://api.edamam.com/api/recipes/v2/b6965e7f8e815e4e69d75ef773cda095?type=public&app_id=ea1d37d5&app_key=fd382a172ba8d6668c0430dc9c14a181",
          "title": "Self"
        }
      }
    },
    {
      "recipe": {
        "uri": "http://www.edamam.com/ontologies/edamam.owl#recipe_28664c133d643eb823a52870f021e16d",
        "label": "Cured Egg Yolks recipes",
        "image": "https://www.edamam.com/web-img/cb6/cb6e819c4d43299ad77a7219042cdb32",
        "source": "Bon Appetit",
        "url": "http://www.bonappetit.com/recipe/cured-egg-yolks",
        "shareAs": "http://www.edamam.com/recipe/cured-egg-yolks-recipes-28664c133d643eb823a52870f021e16d/egg"

      },
      "_links": {
        "self": {
          "href": "https://api.edamam.com/api/recipes/v2/28664c133d643eb823a52870f021e16d?type=public&app_id=ea1d37d5&app_key=fd382a172ba8d6668c0430dc9c14a181",
          "title": "Self"
        }
      }
    },
    {
      "recipe": {
        "uri": "http://www.edamam.com/ontologies/edamam.owl#recipe_0efe3bcf5410d2984d62ab8214ac42a3",
        "label": "Goose Egg Omelette",
        "image": "https://www.edamam.com/web-img/2ec/2ec6784a8ec80ae63ac4a4be1b06262c.jpg",
        "source": "Cook Almost Anything",
        "url": "http://cookalmostanything.blogspot.com/2006/12/eggstra-eggstra.html",
        "shareAs": "http://www.edamam.com/recipe/goose-egg-omelette-0efe3bcf5410d2984d62ab8214ac42a3/egg"

      },
      "_links": {
        "self": {
          "href": "https://api.edamam.com/api/recipes/v2/0efe3bcf5410d2984d62ab8214ac42a3?type=public&app_id=ea1d37d5&app_key=fd382a172ba8d6668c0430dc9c14a181",
          "title": "Self"
        }
      }
    },
    {
      "recipe": {
        "uri": "http://www.edamam.com/ontologies/edamam.owl#recipe_139d4b93784f42c3264f3801d54c5923",
        "label": "Sunny Egg Ravioli",
        "image": "https://www.edamam.com/web-img/5d5/5d5fb48544e71ab45693d5398bb2ec23.jpg",
        "source": "Delicious Days",
        "url": "http://www.deliciousdays.com/archives/2007/05/24/an-extra-dose-of-sunshine-egg-ravioli/",
        "shareAs": "http://www.edamam.com/recipe/sunny-egg-ravioli-139d4b93784f42c3264f3801d54c5923/egg"
      },
      "_links": {
        "self": {
          "href": "https://api.edamam.com/api/recipes/v2/139d4b93784f42c3264f3801d54c5923?type=public&app_id=ea1d37d5&app_key=fd382a172ba8d6668c0430dc9c14a181",
          "title": "Self"
        }
      }
    },
    {
      "recipe": {
        "uri": "http://www.edamam.com/ontologies/edamam.owl#recipe_4ccfd2aaf066db8175b2882c64b28520",
        "label": "Devilish Egg recipes",
        "image": "https://www.edamam.com/web-img/871/871dbcafde8035d31833bc8f24c4324c",
        "source": "EatingWell",
        "url": "http://www.eatingwell.com/recipe/250195/devilish-egg/",
        "shareAs": "http://www.edamam.com/recipe/devilish-egg-recipes-4ccfd2aaf066db8175b2882c64b28520/egg"

      },
      "_links": {
        "self": {
          "href": "https://api.edamam.com/api/recipes/v2/4ccfd2aaf066db8175b2882c64b28520?type=public&app_id=ea1d37d5&app_key=fd382a172ba8d6668c0430dc9c14a181",
          "title": "Self"
        }
      }
    },
    {
      "recipe": {
        "uri": "http://www.edamam.com/ontologies/edamam.owl#recipe_a82cfd564d2c8ee62cfe834722b73f7d",
        "label": "Egg Nog",
        "image": "https://www.edamam.com/web-img/a06/a06a9c8a518266a283b808602a18c600.jpg",
        "source": "Cookstr",
        "url": "http://www.cookstr.com/recipes/egg-nog",
        "shareAs": "http://www.edamam.com/recipe/egg-nog-a82cfd564d2c8ee62cfe834722b73f7d/egg"

      },
      "_links": {
        "self": {
          "href": "https://api.edamam.com/api/recipes/v2/a82cfd564d2c8ee62cfe834722b73f7d?type=public&app_id=ea1d37d5&app_key=fd382a172ba8d6668c0430dc9c14a181",
          "title": "Self"
        }
      }
    },
    {
      "recipe": {
        "uri": "http://www.edamam.com/ontologies/edamam.owl#recipe_58bf6b85a0a5b3692c59ae5f31a5ee74",
        "label": "Egg On Toast",
        "image": "https://www.edamam.com/web-img/901/901f38d369672e8fef122ccd0f6051d0.jpg",
        "source": "Self",
        "url": "http://www.self.com/challenge/2011/nutrition/recipe/breakfasts/egg-on-toast",
        "shareAs": "http://www.edamam.com/recipe/egg-on-toast-58bf6b85a0a5b3692c59ae5f31a5ee74/egg"

      },
      "_links": {
        "self": {
          "href": "https://api.edamam.com/api/recipes/v2/58bf6b85a0a5b3692c59ae5f31a5ee74?type=public&app_id=ea1d37d5&app_key=fd382a172ba8d6668c0430dc9c14a181",
          "title": "Self"
        }
      }
    },
    {
      "recipe": {
        "uri": "http://www.edamam.com/ontologies/edamam.owl#recipe_38c8916ecc55f1ddc521b80846138977",
        "label": "Microwaved Poached Egg",
        "image": "https://www.edamam.com/web-img/498/4989ebee3cf336ae13dfc27e27ff25b4.jpg",
        "source": "The Daily Meal",
        "url": "http://www.thedailymeal.com/microwaved-poached-egg-recipe",
        "shareAs": "http://www.edamam.com/recipe/microwaved-poached-egg-38c8916ecc55f1ddc521b80846138977/egg"

      },
      "_links": {
        "self": {
          "href": "https://api.edamam.com/api/recipes/v2/38c8916ecc55f1ddc521b80846138977?type=public&app_id=ea1d37d5&app_key=fd382a172ba8d6668c0430dc9c14a181",
          "title": "Self"
        }
      }
    },
    {
      "recipe": {
        "uri": "http://www.edamam.com/ontologies/edamam.owl#recipe_c90b59214f47a281d2292313a0a39dc2",
        "label": "Avocado Baked Egg",
        "image": "https://www.edamam.com/web-img/f6d/f6d8995a76f7e0774d1366f242b9559e.jpg",
        "source": "Men's Health",
        "url": "https://www.menshealth.com/recipes/avocado-baked-egg",
        "shareAs": "http://www.edamam.com/recipe/avocado-baked-egg-c90b59214f47a281d2292313a0a39dc2/egg"

      },
      "_links": {
        "self": {
          "href": "https://api.edamam.com/api/recipes/v2/c90b59214f47a281d2292313a0a39dc2?type=public&app_id=ea1d37d5&app_key=fd382a172ba8d6668c0430dc9c14a181",
          "title": "Self"
        }
      }
    },
    {
      "recipe": {
        "uri": "http://www.edamam.com/ontologies/edamam.owl#recipe_1d8858a3b279938afd4d46e980b0bb2a",
        "label": "Egg Nog",
        "image": "https://www.edamam.com/web-img/ac5/ac5c76e6712473aabac824a893745a64.jpeg",
        "source": "Food Network",
        "url": "https://www.foodnetwork.com/recipes/egg-nog-recipe-1957153",
        "shareAs": "http://www.edamam.com/recipe/egg-nog-1d8858a3b279938afd4d46e980b0bb2a/egg"

      },
      "_links": {
        "self": {
          "href": "https://api.edamam.com/api/recipes/v2/1d8858a3b279938afd4d46e980b0bb2a?type=public&app_id=ea1d37d5&app_key=fd382a172ba8d6668c0430dc9c14a181",
          "title": "Self"
        }
      }
    },
    {
      "recipe": {
        "uri": "http://www.edamam.com/ontologies/edamam.owl#recipe_810de2e838c865c3fe0856a6e83668f8",
        "label": "Egg Tarts recipes",
        "image": "https://www.edamam.com/web-img/2df/2df9772cf6a5e537964ceb96ba153225",
        "source": "My Recipes",
        "url": "http://www.myrecipes.com/recipe/egg-tarts",
        "shareAs": "http://www.edamam.com/recipe/egg-tarts-recipes-810de2e838c865c3fe0856a6e83668f8/egg"

      },
      "_links": {
        "self": {
          "href": "https://api.edamam.com/api/recipes/v2/810de2e838c865c3fe0856a6e83668f8?type=public&app_id=ea1d37d5&app_key=fd382a172ba8d6668c0430dc9c14a181",
          "title": "Self"
        }
      }
    },
    {
      "recipe": {
        "uri": "http://www.edamam.com/ontologies/edamam.owl#recipe_1c85e2f142f8f06a37d02655ffdb561a",
        "label": "Egg Dosa ( Sourdough Crepes with Egg)",
        "image": "https://www.edamam.com/web-img/00b/00b9877b43bbdf72195f2b43466335de.JPG",
        "source": "Food52",
        "url": "https://food52.com/recipes/1804-egg-dosa-sourdough-crepes-with-egg",
        "shareAs": "http://www.edamam.com/recipe/egg-dosa-sourdough-crepes-with-egg-1c85e2f142f8f06a37d02655ffdb561a/egg"

      },
      "_links": {
        "self": {
          "href": "https://api.edamam.com/api/recipes/v2/1c85e2f142f8f06a37d02655ffdb561a?type=public&app_id=ea1d37d5&app_key=fd382a172ba8d6668c0430dc9c14a181",
          "title": "Self"
        }
      }
    }
  ]
}